---------------------------------------------------------
C:\GIGA\Proyectos\#255\src\RTC_255\RTC_255\RTC_255.vbproj
---------------------------------------------------------
Setting <ExpressionBlendVersion> value to '4.0.20525.0'
Updating ToolsVersion from '3.5' to '4.0'
Saving file


-------------------------------------------------------
C:\GIGA\Proyectos\#255\src\RTC_255\Common\Common.vbproj
-------------------------------------------------------
Setting <ExpressionBlendVersion> value to '4.0.20525.0'
Updating ToolsVersion from '3.5' to '4.0'
Saving file


-------------------------------------------------------------------
C:\GIGA\Proyectos\#255\src\RTC_255\ListaMoviles\ListaMoviles.vbproj
-------------------------------------------------------------------
Setting <ExpressionBlendVersion> value to '4.0.20525.0'
Updating ToolsVersion from '3.5' to '4.0'
Saving file


----------------------------------------------
C:\GIGA\Proyectos\#255\src\RTC_255\RTC_255.sln
----------------------------------------------
Setting solution format header to 'Microsoft Visual Studio Solution File, Format Version 11.00'
Saving file


