^D:\GIGA\TAXIPORTAL_06_MAYO_2012\SRC\RTC_255\RTC_255\ABOUTBOX1.RESX|D:\GIGA\TAXIPORTAL_06_MAYO_2012\SRC\RTC_255\RTC_255\FRMBARRIOS.RESX|D:\GIGA\TAXIPORTAL_06_MAYO_2012\SRC\RTC_255\RTC_255\FRMCLIENTES.RESX|D:\GIGA\TAXIPORTAL_06_MAYO_2012\SRC\RTC_255\RTC_255\FRMCONFIG.RESX|D:\GIGA\TAXIPORTAL_06_MAYO_2012\SRC\RTC_255\RTC_255\FRMCREDITOS.RESX|D:\GIGA\TAXIPORTAL_06_MAYO_2012\SRC\RTC_255\RTC_255\FRMHISTORIAL.RESX|D:\GIGA\TAXIPORTAL_06_MAYO_2012\SRC\RTC_255\RTC_255\FRMIMAGEN.RESX|D:\GIGA\TAXIPORTAL_06_MAYO_2012\SRC\RTC_255\RTC_255\FRMMOVILES.RESX|D:\GIGA\TAXIPORTAL_06_MAYO_2012\SRC\RTC_255\RTC_255\FRMMOVIMIENTOS.RESX|D:\GIGA\TAXIPORTAL_06_MAYO_2012\SRC\RTC_255\RTC_255\FRMPAGOAHORROS.RESX|D:\GIGA\TAXIPORTAL_06_MAYO_2012\SRC\RTC_255\RTC_255\FRMPASSWORD.RESX|D:\GIGA\TAXIPORTAL_06_MAYO_2012\SRC\RTC_255\RTC_255\FRMPERSONAS.RESX|D:\GIGA\TAXIPORTAL_06_MAYO_2012\SRC\RTC_255\RTC_255\FRMPICOYPLACA.RESX|D:\GIGA\TAXIPORTAL_06_MAYO_2012\SRC\RTC_255\RTC_255\FRMPICO_PLACA.RESX|D:\GIGA\TAXIPORTAL_06_MAYO_2012\SRC\RTC_255\RTC_255\FRMPRESTAMO.RESX|D:\GIGA\TAXIPORTAL_06_MAYO_2012\SRC\RTC_255\RTC_255\FRMPRINCIPAL.RESX|D:\GIGA\TAXIPORTAL_06_MAYO_2012\SRC\RTC_255\RTC_255\FRMPRINT.RESX|D:\GIGA\TAXIPORTAL_06_MAYO_2012\SRC\RTC_255\RTC_255\FRMRECAUDACION.RESX|D:\GIGA\TAXIPORTAL_06_MAYO_2012\SRC\RTC_255\RTC_255\FRMRESUMEN.RESX|D:\GIGA\TAXIPORTAL_06_MAYO_2012\SRC\RTC_255\RTC_255\FRMSANCION.RESX|D:\GIGA\TAXIPORTAL_06_MAYO_2012\SRC\RTC_255\RTC_255\FRMTARIFAS.RESX|D:\GIGA\TAXIPORTAL_06_MAYO_2012\SRC\RTC_255\RTC_255\FRMUSUARIOS.RESX|D:\GIGA\TAXIPORTAL_06_MAYO_2012\SRC\RTC_255\RTC_255\FRMVALES.RESX|D:\GIGA\TAXIPORTAL_06_MAYO_2012\SRC\RTC_255\RTC_255\FRMZONAS.RESX|D:\GIGA\TAXIPORTAL_06_MAYO_2012\SRC\RTC_255\RTC_255\LOGINFORM1.RESX|D:\GIGA\TAXIPORTAL_06_MAYO_2012\SRC\RTC_255\RTC_255\MY PROJECT\RESOURCES.RESX|D:\GIGA\TAXIPORTAL_06_MAYO_2012\SRC\RTC_255\RTC_255\SPLASHSCREEN1.RESX|D:\GIGA\TAXIPORTAL_06_MAYO_2012\SRC\RTC_255\RTC_255\TRANSACCION.RESX|D:\GIGA\TAXIPORTAL_06_MAYO_2012\SRC\RTC_255\RTC_255\WEBBROWSER.RESX
D:\GIGA\TAXIPORTAL_06_MAYO_2012\SRC\RTC_255\RTC_255\OBJ\DEBUG\TAXIPORTAL.ABOUTBOX1.RESOURCES
D:\GIGA\TAXIPORTAL_06_MAYO_2012\SRC\RTC_255\RTC_255\OBJ\DEBUG\TAXIPORTAL.FRMCREDITOS.RESOURCES
D:\GIGA\TAXIPORTAL_06_MAYO_2012\SRC\RTC_255\RTC_255\OBJ\DEBUG\TAXIPORTAL.FRMCLIENTES.RESOURCES
D:\GIGA\TAXIPORTAL_06_MAYO_2012\SRC\RTC_255\RTC_255\OBJ\DEBUG\TAXIPORTAL.FRMBARRIOS.RESOURCES
D:\GIGA\TAXIPORTAL_06_MAYO_2012\SRC\RTC_255\RTC_255\OBJ\DEBUG\TAXIPORTAL.FRMCONFIG.RESOURCES
D:\GIGA\TAXIPORTAL_06_MAYO_2012\SRC\RTC_255\RTC_255\OBJ\DEBUG\TAXIPORTAL.FRMHISTORIAL.RESOURCES
D:\GIGA\TAXIPORTAL_06_MAYO_2012\SRC\RTC_255\RTC_255\OBJ\DEBUG\TAXIPORTAL.FRMIMAGEN.RESOURCES
D:\GIGA\TAXIPORTAL_06_MAYO_2012\SRC\RTC_255\RTC_255\OBJ\DEBUG\TAXIPORTAL.FRMMOVILES.RESOURCES
D:\GIGA\TAXIPORTAL_06_MAYO_2012\SRC\RTC_255\RTC_255\OBJ\DEBUG\TAXIPORTAL.FRMMOVIMIENTOS.RESOURCES
D:\GIGA\TAXIPORTAL_06_MAYO_2012\SRC\RTC_255\RTC_255\OBJ\DEBUG\TAXIPORTAL.FRMPAGOAHORROS.RESOURCES
D:\GIGA\TAXIPORTAL_06_MAYO_2012\SRC\RTC_255\RTC_255\OBJ\DEBUG\TAXIPORTAL.FRMPASSWORD.RESOURCES
D:\GIGA\TAXIPORTAL_06_MAYO_2012\SRC\RTC_255\RTC_255\OBJ\DEBUG\TAXIPORTAL.FRMPICOYPLACA.RESOURCES
D:\GIGA\TAXIPORTAL_06_MAYO_2012\SRC\RTC_255\RTC_255\OBJ\DEBUG\TAXIPORTAL.FRMPRESTAMO.RESOURCES
D:\GIGA\TAXIPORTAL_06_MAYO_2012\SRC\RTC_255\RTC_255\OBJ\DEBUG\TAXIPORTAL.FRMPRINCIPAL.RESOURCES
D:\GIGA\TAXIPORTAL_06_MAYO_2012\SRC\RTC_255\RTC_255\OBJ\DEBUG\TAXIPORTAL.FRMPRINT.RESOURCES
D:\GIGA\TAXIPORTAL_06_MAYO_2012\SRC\RTC_255\RTC_255\OBJ\DEBUG\TAXIPORTAL.FRMRECAUDACION.RESOURCES
D:\GIGA\TAXIPORTAL_06_MAYO_2012\SRC\RTC_255\RTC_255\OBJ\DEBUG\TAXIPORTAL.FRMRESUMEN.RESOURCES
D:\GIGA\TAXIPORTAL_06_MAYO_2012\SRC\RTC_255\RTC_255\OBJ\DEBUG\TAXIPORTAL.FRMSANCION.RESOURCES
D:\GIGA\TAXIPORTAL_06_MAYO_2012\SRC\RTC_255\RTC_255\OBJ\DEBUG\TAXIPORTAL.FRMTARIFAS.RESOURCES
D:\GIGA\TAXIPORTAL_06_MAYO_2012\SRC\RTC_255\RTC_255\OBJ\DEBUG\TAXIPORTAL.FRMUSUARIOS.RESOURCES
D:\GIGA\TAXIPORTAL_06_MAYO_2012\SRC\RTC_255\RTC_255\OBJ\DEBUG\TAXIPORTAL.FRMVALES.RESOURCES
D:\GIGA\TAXIPORTAL_06_MAYO_2012\SRC\RTC_255\RTC_255\OBJ\DEBUG\TAXIPORTAL.FRMZONAS.RESOURCES
D:\GIGA\TAXIPORTAL_06_MAYO_2012\SRC\RTC_255\RTC_255\OBJ\DEBUG\TAXIPORTAL.LOGINFORM1.RESOURCES
D:\GIGA\TAXIPORTAL_06_MAYO_2012\SRC\RTC_255\RTC_255\OBJ\DEBUG\TAXIPORTAL.RESOURCES.RESOURCES
D:\GIGA\TAXIPORTAL_06_MAYO_2012\SRC\RTC_255\RTC_255\OBJ\DEBUG\TAXIPORTAL.FRMPERSONAS.RESOURCES
D:\GIGA\TAXIPORTAL_06_MAYO_2012\SRC\RTC_255\RTC_255\OBJ\DEBUG\TAXIPORTAL.FRMPICO_PLACA.RESOURCES
D:\GIGA\TAXIPORTAL_06_MAYO_2012\SRC\RTC_255\RTC_255\OBJ\DEBUG\TAXIPORTAL.SPLASHSCREEN1.RESOURCES
D:\GIGA\TAXIPORTAL_06_MAYO_2012\SRC\RTC_255\RTC_255\OBJ\DEBUG\TAXIPORTAL.FRMTRANSACCION.RESOURCES
D:\GIGA\TAXIPORTAL_06_MAYO_2012\SRC\RTC_255\RTC_255\OBJ\DEBUG\TAXIPORTAL.WEBBROWSER.RESOURCES
