^D:\GIGA\TAXIPORTAL_06_MAYO_2012\SRC\RTC_255\RTC_255\ABOUTBOX1.RESX
C:\PROGRAM FILES\MICROSOFT SDKS\WINDOWS\V7.0A\BIN\ES\RESGEN.RESOURCES.DLL
^D:\GIGA\TAXIPORTAL_06_MAYO_2012\SRC\RTC_255\RTC_255\FRMCREDITOS.RESX
^D:\GIGA\TAXIPORTAL_06_MAYO_2012\SRC\RTC_255\RTC_255\FRMCLIENTES.RESX
^D:\GIGA\TAXIPORTAL_06_MAYO_2012\SRC\RTC_255\RTC_255\FRMBARRIOS.RESX
^D:\GIGA\TAXIPORTAL_06_MAYO_2012\SRC\RTC_255\RTC_255\FRMCONFIG.RESX
^D:\GIGA\TAXIPORTAL_06_MAYO_2012\SRC\RTC_255\RTC_255\FRMHISTORIAL.RESX
^D:\GIGA\TAXIPORTAL_06_MAYO_2012\SRC\RTC_255\RTC_255\FRMIMAGEN.RESX
^D:\GIGA\TAXIPORTAL_06_MAYO_2012\SRC\RTC_255\RTC_255\FRMMOVILES.RESX
^D:\GIGA\TAXIPORTAL_06_MAYO_2012\SRC\RTC_255\RTC_255\FRMMOVIMIENTOS.RESX
^D:\GIGA\TAXIPORTAL_06_MAYO_2012\SRC\RTC_255\RTC_255\FRMPAGOAHORROS.RESX
^D:\GIGA\TAXIPORTAL_06_MAYO_2012\SRC\RTC_255\RTC_255\FRMPASSWORD.RESX
^D:\GIGA\TAXIPORTAL_06_MAYO_2012\SRC\RTC_255\RTC_255\FRMPICOYPLACA.RESX
^D:\GIGA\TAXIPORTAL_06_MAYO_2012\SRC\RTC_255\RTC_255\FRMPRESTAMO.RESX
^D:\GIGA\TAXIPORTAL_06_MAYO_2012\SRC\RTC_255\RTC_255\FRMPRINCIPAL.RESX
^D:\GIGA\TAXIPORTAL_06_MAYO_2012\SRC\RTC_255\RTC_255\FRMPRINT.RESX
^D:\GIGA\TAXIPORTAL_06_MAYO_2012\SRC\RTC_255\RTC_255\FRMRESUMEN.RESX
^D:\GIGA\TAXIPORTAL_06_MAYO_2012\SRC\RTC_255\RTC_255\FRMSANCION.RESX
^D:\GIGA\TAXIPORTAL_06_MAYO_2012\SRC\RTC_255\RTC_255\FRMTARIFAS.RESX
^D:\GIGA\TAXIPORTAL_06_MAYO_2012\SRC\RTC_255\RTC_255\FRMUSUARIOS.RESX
^D:\GIGA\TAXIPORTAL_06_MAYO_2012\SRC\RTC_255\RTC_255\FRMVALES.RESX
^D:\GIGA\TAXIPORTAL_06_MAYO_2012\SRC\RTC_255\RTC_255\FRMZONAS.RESX
^D:\GIGA\TAXIPORTAL_06_MAYO_2012\SRC\RTC_255\RTC_255\LOGINFORM1.RESX
^D:\GIGA\TAXIPORTAL_06_MAYO_2012\SRC\RTC_255\RTC_255\MY PROJECT\RESOURCES.RESX
D:\GIGA\TAXIPORTAL_06_MAYO_2012\SRC\RTC_255\RTC_255\RESOURCES\RE_TAXI.PNG
D:\GIGA\TAXIPORTAL_06_MAYO_2012\SRC\RTC_255\RTC_255\RESOURCES\RE_CALENDAR.ICO
D:\GIGA\TAXIPORTAL_06_MAYO_2012\SRC\RTC_255\RTC_255\RESOURCES\TAXI.JPG
D:\GIGA\TAXIPORTAL_06_MAYO_2012\SRC\RTC_255\RTC_255\RESOURCES\BUTTON REFRESH.PNG
D:\GIGA\TAXIPORTAL_06_MAYO_2012\SRC\RTC_255\RTC_255\RESOURCES\RE_PRINT.PNG
D:\GIGA\TAXIPORTAL_06_MAYO_2012\SRC\RTC_255\RTC_255\RESOURCES\NODISP.PNG
D:\GIGA\TAXIPORTAL_06_MAYO_2012\SRC\RTC_255\RTC_255\RESOURCES\BACK1.PNG
D:\GIGA\TAXIPORTAL_06_MAYO_2012\SRC\RTC_255\RTC_255\RESOURCES\RE_IDENTIFICATION.PNG
D:\GIGA\TAXIPORTAL_06_MAYO_2012\SRC\RTC_255\RTC_255\RESOURCES\BUTTON%20REFRESH.PNG
D:\GIGA\TAXIPORTAL_06_MAYO_2012\SRC\RTC_255\RTC_255\RESOURCES\RE_MATRICULA.JPG
D:\GIGA\TAXIPORTAL_06_MAYO_2012\SRC\RTC_255\RTC_255\RESOURCES\LOGO.GIF
D:\GIGA\TAXIPORTAL_06_MAYO_2012\SRC\RTC_255\RTC_255\RESOURCES\RE_LEYENDA.PNG
D:\GIGA\TAXIPORTAL_06_MAYO_2012\SRC\RTC_255\RTC_255\RESOURCES\CIRCLE_GREEN.PNG
D:\GIGA\TAXIPORTAL_06_MAYO_2012\SRC\RTC_255\RTC_255\RESOURCES\RE_MONEY.ICO
D:\GIGA\TAXIPORTAL_06_MAYO_2012\SRC\RTC_255\RTC_255\RESOURCES\BACK.PNG
D:\GIGA\TAXIPORTAL_06_MAYO_2012\SRC\RTC_255\RTC_255\RESOURCES\RE_USER.JPG
D:\GIGA\TAXIPORTAL_06_MAYO_2012\SRC\RTC_255\RTC_255\RESOURCES\REFRESH2.PNG
D:\GIGA\TAXIPORTAL_06_MAYO_2012\SRC\RTC_255\RTC_255\RESOURCES\HISTORIAL.PNG
D:\GIGA\TAXIPORTAL_06_MAYO_2012\SRC\RTC_255\RTC_255\RESOURCES\CADETE.ICO
D:\GIGA\TAXIPORTAL_06_MAYO_2012\SRC\RTC_255\RTC_255\RESOURCES\RELOJ.JPG
D:\GIGA\TAXIPORTAL_06_MAYO_2012\SRC\RTC_255\RTC_255\RESOURCES\SIN TíTULO.JPG
D:\GIGA\TAXIPORTAL_06_MAYO_2012\SRC\RTC_255\RTC_255\RESOURCES\RE_PICO_PLACA.PNG
D:\GIGA\TAXIPORTAL_06_MAYO_2012\SRC\RTC_255\RTC_255\RESOURCES\RE_PICO_PLACA.JPG
D:\GIGA\TAXIPORTAL_06_MAYO_2012\SRC\RTC_255\RTC_255\RESOURCES\TARIFA.ICO
D:\GIGA\TAXIPORTAL_06_MAYO_2012\SRC\RTC_255\RTC_255\RESOURCES\DELETE.BMP
D:\GIGA\TAXIPORTAL_06_MAYO_2012\SRC\RTC_255\RTC_255\RESOURCES\IMAGES.JPG
D:\GIGA\TAXIPORTAL_06_MAYO_2012\SRC\RTC_255\RTC_255\RESOURCES\CADETES.PNG
D:\GIGA\TAXIPORTAL_06_MAYO_2012\SRC\RTC_255\RTC_255\RESOURCES\TARIFA.PNG
D:\GIGA\TAXIPORTAL_06_MAYO_2012\SRC\RTC_255\RTC_255\RESOURCES\RE_CALENDAR_DIB.PNG
D:\GIGA\TAXIPORTAL_06_MAYO_2012\SRC\RTC_255\RTC_255\RESOURCES\GIGA.PNG
D:\GIGA\TAXIPORTAL_06_MAYO_2012\SRC\RTC_255\RTC_255\RESOURCES\HISTORIAL.BMP
D:\GIGA\TAXIPORTAL_06_MAYO_2012\SRC\RTC_255\RTC_255\RESOURCES\RE_BUSCAR.PNG
D:\GIGA\TAXIPORTAL_06_MAYO_2012\SRC\RTC_255\RTC_255\RESOURCES\MAP.ICO
D:\GIGA\TAXIPORTAL_06_MAYO_2012\SRC\RTC_255\RTC_255\RESOURCES\RE_WALLET.PNG
D:\GIGA\TAXIPORTAL_06_MAYO_2012\SRC\RTC_255\RTC_255\RESOURCES\NODISPONIBLE.JPG
D:\GIGA\TAXIPORTAL_06_MAYO_2012\SRC\RTC_255\RTC_255\RESOURCES\PRINTER.PNG
D:\GIGA\TAXIPORTAL_06_MAYO_2012\SRC\RTC_255\RTC_255\RESOURCES\GIGAWALL2.JPG
D:\GIGA\TAXIPORTAL_06_MAYO_2012\SRC\RTC_255\RTC_255\RESOURCES\RE_CREDIT_CARD.PNG
D:\GIGA\TAXIPORTAL_06_MAYO_2012\SRC\RTC_255\RTC_255\RESOURCES\RE_SAVE.PNG
D:\GIGA\TAXIPORTAL_06_MAYO_2012\SRC\RTC_255\RTC_255\RESOURCES\ALCANCIA.PNG
D:\GIGA\TAXIPORTAL_06_MAYO_2012\SRC\RTC_255\RTC_255\RESOURCES\CHECK.JPG
D:\GIGA\TAXIPORTAL_06_MAYO_2012\SRC\RTC_255\RTC_255\RESOURCES\CHECK2.JPG
D:\GIGA\TAXIPORTAL_06_MAYO_2012\SRC\RTC_255\RTC_255\RESOURCES\DOLLAR.PNG
D:\GIGA\TAXIPORTAL_06_MAYO_2012\SRC\RTC_255\RTC_255\RESOURCES\FILE2.PNG
D:\GIGA\TAXIPORTAL_06_MAYO_2012\SRC\RTC_255\RTC_255\RESOURCES\MOVIMIENTO.JPG
D:\GIGA\TAXIPORTAL_06_MAYO_2012\SRC\RTC_255\RTC_255\RESOURCES\RECAUDA.JPG
D:\GIGA\TAXIPORTAL_06_MAYO_2012\SRC\RTC_255\RTC_255\RESOURCES\RECAUDA2.JPG
D:\GIGA\TAXIPORTAL_06_MAYO_2012\SRC\RTC_255\RTC_255\RESOURCES\REDX.PNG
D:\GIGA\TAXIPORTAL_06_MAYO_2012\SRC\RTC_255\RTC_255\RESOURCES\SPLASH.JPG
D:\GIGA\TAXIPORTAL_06_MAYO_2012\SRC\RTC_255\RTC_255\RESOURCES\NODISPONIBLE.PNG
D:\GIGA\TAXIPORTAL_06_MAYO_2012\SRC\RTC_255\RTC_255\RESOURCES\RADIO.ICO
D:\GIGA\TAXIPORTAL_06_MAYO_2012\SRC\RTC_255\RTC_255\RESOURCES\VALES.PNG
C:\WINDOWS\SYSTEM32\MSXML6R.DLL
^D:\GIGA\TAXIPORTAL_06_MAYO_2012\SRC\RTC_255\RTC_255\FRMPERSONAS.RESX
^D:\GIGA\TAXIPORTAL_06_MAYO_2012\SRC\RTC_255\RTC_255\FRMPICO_PLACA.RESX
^D:\GIGA\TAXIPORTAL_06_MAYO_2012\SRC\RTC_255\RTC_255\SPLASHSCREEN1.RESX
^D:\GIGA\TAXIPORTAL_06_MAYO_2012\SRC\RTC_255\RTC_255\WEBBROWSER.RESX
C:\WINDOWS\MICROSOFT.NET\FRAMEWORK\V2.0.50727\CONFIG\SECURITY.CONFIG
C:\WINDOWS\MICROSOFT.NET\FRAMEWORK\V2.0.50727\CONFIG\ENTERPRISESEC.CONFIG
^D:\GIGA\TAXIPORTAL_06_MAYO_2012\SRC\RTC_255\RTC_255\FRMRECAUDACION.RESX
C:\WINDOWS\MICROSOFT.NET\FRAMEWORK\V2.0.50727\CONFIG\SECURITY.CONFIG
C:\WINDOWS\MICROSOFT.NET\FRAMEWORK\V2.0.50727\CONFIG\ENTERPRISESEC.CONFIG
^D:\GIGA\TAXIPORTAL_06_MAYO_2012\SRC\RTC_255\RTC_255\TRANSACCION.RESX
C:\PROGRAM FILES\MICROSOFT SDKS\WINDOWS\V7.0A\BIN\ES\RESGEN.RESOURCES.DLL
C:\WINDOWS\MICROSOFT.NET\FRAMEWORK\V2.0.50727\CONFIG\SECURITY.CONFIG
C:\WINDOWS\MICROSOFT.NET\FRAMEWORK\V2.0.50727\CONFIG\ENTERPRISESEC.CONFIG
